^C:\USERS\VBONASSI\DESKTOP\ESGI\C++\SERVERPROJ\SERVERTEST\RELEASE\SERVERTEST.OBJ|C:\USERS\VBONASSI\DESKTOP\ESGI\C++\SERVERPROJ\SERVERTEST\RELEASE\STDAFX.OBJ
C:\USERS\VBONASSI\DESKTOP\ESGI\C++\SERVERPROJ\RELEASE\SERVERTEST.EXE
C:\USERS\VBONASSI\DESKTOP\ESGI\C++\SERVERPROJ\RELEASE\SERVERTEST.IPDB
C:\USERS\VBONASSI\DESKTOP\ESGI\C++\SERVERPROJ\RELEASE\SERVERTEST.IOBJ
C:\USERS\VBONASSI\DESKTOP\ESGI\C++\SERVERPROJ\RELEASE\SERVERTEST.PDB
